<?xml version="1.0" encoding="utf-8"?>
<COLLADA xmlns="http://www.collada.org/2005/11/COLLADASchema" version="1.4.1" xmlns:xsi="http://www.w3.org/2001/XMLSchema-instance">
  <asset>
    <contributor>
      <author>Blender User</author>
      <authoring_tool>Blender 2.79.0 commit date:2018-03-22, commit time:14:10, hash:f4dc9f9d68b</authoring_tool>
    </contributor>
    <created>2018-06-02T18:45:50</created>
    <modified>2018-06-02T18:45:50</modified>
    <unit name="meter" meter="1"/>
    <up_axis>Z_UP</up_axis>
  </asset>
  <library_images/>
  <library_geometries>
    <geometry id="Cone_001-mesh" name="Cone.001">
      <mesh>
        <source id="Cone_001-mesh-positions">
          <float_array id="Cone_001-mesh-positions-array" count="189">-0.001343607 1.006191 3.135056 0.5864416 0.815208 3.135056 0.9497129 0.315208 3.135056 0.9497128 -0.302826 3.135056 0.5864415 -0.8028261 3.135056 -0.001343727 -0.993809 3.135056 -0.589129 -0.8028259 3.135056 -0.001343607 0.006191015 5.895056 -0.9524002 -0.3028261 3.135056 -0.9524002 0.3152081 3.135056 -0.5891286 0.8152083 3.135056 0.1336207 -2.1009 -3.626658 0.1363496 -2.094039 -0.4391403 -0.2518736 -2.071083 -3.626392 -0.2491448 -2.064221 -0.4388743 0.2194316 -1.002146 -2.432196 0.2221603 -0.9952844 0.7553218 -0.1660627 -0.9723284 -2.431931 -0.163334 -0.965467 0.7555876 -0.1533105 2.030303 -3.637515 -0.1533105 2.030303 -0.4498482 0.23359 2.023094 -3.637515 0.23359 2.023094 -0.4498482 -0.173783 0.9316233 -2.440565 -0.173783 0.9316233 0.747102 0.2131175 0.9244139 -2.440565 0.2131175 0.9244139 0.747102 -2.051271 -0.2215324 -3.637515 -2.051271 -0.2215324 -0.4498482 -2.051271 0.1654353 -3.637515 -2.051271 0.1654353 -0.4498482 -0.9523999 -0.2215324 -2.440565 -0.9523999 -0.2215324 0.747102 -0.9523999 0.1654353 -2.440565 -0.9523999 0.1654353 0.747102 2.07387 0.1423153 -3.626658 2.066959 0.1449156 -0.4391403 2.05124 -0.2436677 -3.626392 2.044329 -0.2410672 -0.4388743 0.973708 0.207641 -2.432196 0.9667969 0.2102414 0.7553218 0.9510777 -0.1783419 -2.431931 0.9441666 -0.1757415 0.7555876 -0.001343607 1.006191 -3.398823 -0.001343607 1.006191 3.134896 0.5864416 0.815208 -3.398823 0.5864416 0.815208 3.134896 0.9497129 0.315208 -3.398823 0.9497129 0.315208 3.134896 0.9497128 -0.302826 -3.398823 0.9497128 -0.302826 3.134896 0.5864415 -0.8028261 -3.398823 0.5864415 -0.8028261 3.134896 -0.001343727 -0.993809 -3.398823 -0.001343727 -0.993809 3.134896 -0.589129 -0.8028259 -3.398823 -0.589129 -0.8028259 3.134896 -0.9524002 -0.3028261 -3.398823 -0.9524002 -0.3028261 3.134896 -0.9524002 0.3152081 -3.398823 -0.9524002 0.3152081 3.134896 -0.5891286 0.8152083 -3.398823 -0.5891286 0.8152083 3.134896</float_array>
          <technique_common>
            <accessor source="#Cone_001-mesh-positions-array" count="63" stride="3">
              <param name="X" type="float"/>
              <param name="Y" type="float"/>
              <param name="Z" type="float"/>
            </accessor>
          </technique_common>
        </source>
        <source id="Cone_001-mesh-normals">
          <float_array id="Cone_001-mesh-normals-array" count="246">0.292158 0.8991702 0.3257864 0.7648798 0.5557178 0.3257864 0.9454435 -1.32146e-7 0.3257864 0.7648799 -0.5557177 0.3257864 0.292158 -0.8991702 0.3257864 -0.2921583 -0.8991701 0.3257863 -0.7648797 -0.5557179 0.3257864 -0.9454434 0 0.3257864 -0.7648797 0.555718 0.3257864 -0.2921577 0.8991703 0.3257863 0 0 -1 -0.07711499 -0.9970198 0.002211928 -0.9970218 0.07711827 6.87516e-4 0.0771169 0.9970197 -0.002212166 0.9970218 -0.07711833 -6.87544e-4 0.05621159 0.7327985 -0.6781199 -0.05621325 -0.7327982 0.6781201 0.01862961 0.9998265 0 0.9998264 -0.01863044 0 -0.0186305 -0.9998265 0 -0.9998264 0.01863044 0 -0.01372295 -0.7365152 -0.6762819 0.01372402 0.7365154 0.6762817 -1 0 0 0 1 0 1 0 0 0 -1 0 0.736643 0 -0.6762819 -0.7366431 0 0.6762818 0.9982833 -0.05852776 0.002212166 -0.05853003 -0.9982855 6.87533e-4 -0.9982833 0.05852794 -0.002212166 0.05852997 0.9982854 -6.87505e-4 -0.7337179 0.0425502 -0.6781206 0.7337183 -0.0425511 0.6781202 0.309017 0.9510566 0 0.8090171 0.5877853 0 0.809017 -0.5877853 0 0.3090168 -0.9510567 0 -0.3090171 -0.9510566 0 -0.809017 -0.5877854 0 0 0 1 -0.809017 0.5877854 0 -0.3090167 0.9510567 0 3.62799e-7 0 -1 -5.30967e-7 0 -1 -1.06193e-6 0 -1 -4.24772e-6 0 -1 3.62799e-7 0 -1 1.27252e-7 0 -1 -0.07711809 -0.9970196 0.002212405 -0.9970218 0.07711833 6.87503e-4 0.07711654 0.9970197 -0.002212226 0.9970217 -0.07711821 -6.87507e-4 0.05621492 0.7327975 -0.6781207 -0.05621409 -0.732798 0.6781203 0.01862961 0.9998265 0 0.9998264 -0.01863044 0 -0.9998264 0.01863044 0 -0.01372402 -0.7365153 -0.6762818 0.01372331 0.7365152 0.6762818 0.7366429 0 -0.6762819 0.9982834 -0.05852848 0.002212166 -0.05852997 -0.9982855 6.87509e-4 -0.9982834 0.05852806 -0.002212166 0.05853003 0.9982854 -6.87508e-4 -0.7337182 0.04255235 -0.6781201 0.7337185 -0.04254966 0.6781201 0.309017 0.9510565 0 1 -2.36171e-7 0 0.8090172 -0.5877852 0 -0.3090171 -0.9510566 0 2.12386e-6 0 1 -4.05622e-7 0 1 0 0 1 -5.01376e-7 0 1 -0.809017 0.5877855 0 -0.3090167 0.9510566 0 -1.06193e-6 0 -1 4.24772e-6 0 -1 -3.62799e-7 0 -1 0 0 -1</float_array>
          <technique_common>
            <accessor source="#Cone_001-mesh-normals-array" count="82" stride="3">
              <param name="X" type="float"/>
              <param name="Y" type="float"/>
              <param name="Z" type="float"/>
            </accessor>
          </technique_common>
        </source>
        <vertices id="Cone_001-mesh-vertices">
          <input semantic="POSITION" source="#Cone_001-mesh-positions"/>
        </vertices>
        <triangles count="102">
          <input semantic="VERTEX" source="#Cone_001-mesh-vertices" offset="0"/>
          <input semantic="NORMAL" source="#Cone_001-mesh-normals" offset="1"/>
          <p>0 0 7 0 1 0 1 1 7 1 2 1 2 2 7 2 3 2 3 3 7 3 4 3 4 4 7 4 5 4 5 5 7 5 6 5 6 6 7 6 8 6 8 7 7 7 9 7 9 8 7 8 10 8 10 9 7 9 0 9 3 10 5 10 8 10 12 11 13 11 11 11 14 12 17 12 13 12 18 13 15 13 17 13 15 14 12 14 11 14 13 15 15 15 11 15 14 16 16 16 18 16 20 17 21 17 19 17 22 18 25 18 21 18 26 19 23 19 25 19 23 20 20 20 19 20 25 21 19 21 21 21 26 22 20 22 24 22 28 23 29 23 27 23 30 24 33 24 29 24 34 25 31 25 33 25 31 26 28 26 27 26 33 27 27 27 29 27 30 28 32 28 34 28 36 29 37 29 35 29 38 30 41 30 37 30 42 31 39 31 41 31 39 32 36 32 35 32 41 33 35 33 37 33 38 34 40 34 42 34 44 35 45 35 43 35 46 36 47 36 45 36 48 25 49 25 47 25 50 37 51 37 49 37 52 38 53 38 51 38 54 39 55 39 53 39 56 40 57 40 55 40 58 23 59 23 57 23 60 41 52 41 48 41 60 42 61 42 59 42 62 43 43 43 61 43 49 44 53 44 57 44 10 45 0 45 1 45 1 10 2 10 3 10 3 46 4 46 5 46 5 10 6 10 8 10 8 47 9 47 10 47 10 48 1 48 8 48 1 49 3 49 8 49 12 50 14 50 13 50 14 51 18 51 17 51 18 52 16 52 15 52 15 53 16 53 12 53 13 54 17 54 15 54 14 55 12 55 16 55 20 56 22 56 21 56 22 57 26 57 25 57 26 19 24 19 23 19 23 58 24 58 20 58 25 59 23 59 19 59 26 60 22 60 20 60 28 23 30 23 29 23 30 24 34 24 33 24 34 25 32 25 31 25 31 26 32 26 28 26 33 61 31 61 27 61 30 28 28 28 32 28 36 62 38 62 37 62 38 63 42 63 41 63 42 64 40 64 39 64 39 65 40 65 36 65 41 66 39 66 35 66 38 67 36 67 40 67 44 68 46 68 45 68 46 36 48 36 47 36 48 69 50 69 49 69 50 70 52 70 51 70 52 38 54 38 53 38 54 71 56 71 55 71 56 40 58 40 57 40 58 23 60 23 59 23 48 72 46 72 44 72 44 73 62 73 48 73 62 74 60 74 48 74 60 41 58 41 56 41 56 41 54 41 60 41 54 75 52 75 60 75 52 41 50 41 48 41 60 76 62 76 61 76 62 77 44 77 43 77 61 10 43 10 45 10 45 10 47 10 49 10 49 10 51 10 53 10 53 78 55 78 57 78 57 79 59 79 61 79 61 80 45 80 57 80 45 81 49 81 57 81</p>
        </triangles>
      </mesh>
    </geometry>
  </library_geometries>
  <library_controllers/>
  <library_visual_scenes>
    <visual_scene id="Scene" name="Scene">
      <node id="Ship-convcolonly" name="Ship-convcolonly" type="NODE">
        <matrix sid="transform">1 0 0 0.001343696 0 1 0 -0.006191035 0 0 1 0.2043743 0 0 0 1</matrix>
        <instance_geometry url="#Cone_001-mesh" name="Ship-convcolonly"/>
      </node>
    </visual_scene>
  </library_visual_scenes>
  <scene>
    <instance_visual_scene url="#Scene"/>
  </scene>
</COLLADA>