<?xml version="1.0" encoding="utf-8"?>
<COLLADA xmlns="http://www.collada.org/2005/11/COLLADASchema" version="1.4.1" xmlns:xsi="http://www.w3.org/2001/XMLSchema-instance">
  <asset>
    <contributor>
      <author>Blender User</author>
      <authoring_tool>Blender 2.79.0 commit date:2018-03-22, commit time:14:10, hash:f4dc9f9d68b</authoring_tool>
    </contributor>
    <created>2018-06-02T16:13:34</created>
    <modified>2018-06-02T16:13:34</modified>
    <unit name="meter" meter="1"/>
    <up_axis>Z_UP</up_axis>
  </asset>
  <library_cameras>
    <camera id="Camera-camera" name="Camera">
      <optics>
        <technique_common>
          <perspective>
            <xfov sid="xfov">49.13434</xfov>
            <aspect_ratio>1.777778</aspect_ratio>
            <znear sid="znear">0.1</znear>
            <zfar sid="zfar">100</zfar>
          </perspective>
        </technique_common>
      </optics>
      <extra>
        <technique profile="blender">
          <shiftx sid="shiftx" type="float">0</shiftx>
          <shifty sid="shifty" type="float">0</shifty>
          <YF_dofdist sid="YF_dofdist" type="float">0</YF_dofdist>
        </technique>
      </extra>
    </camera>
  </library_cameras>
  <library_images/>
  <library_geometries>
    <geometry id="Cone-mesh" name="Cone">
      <mesh>
        <source id="Cone-mesh-positions">
          <float_array id="Cone-mesh-positions-array" count="189">-0.001343667 1.006191 3.135056 0.5864416 0.815208 3.135056 0.9497129 0.315208 3.135056 0.9497128 -0.302826 3.135056 0.5864415 -0.8028261 3.135056 -0.001343727 -0.993809 3.135056 -0.589129 -0.8028259 3.135056 -0.001343667 0.006191015 5.895056 -0.9524002 -0.3028261 3.135056 -0.9524002 0.3152081 3.135056 -0.5891286 0.8152083 3.135056 0.1336208 -2.1009 -3.626658 0.1363496 -2.094039 -0.4391403 -0.2518736 -2.071083 -3.626392 -0.2491448 -2.064221 -0.4388743 0.2194317 -1.002146 -2.432196 0.2221604 -0.9952844 0.7553218 -0.1660627 -0.9723284 -2.431931 -0.163334 -0.965467 0.7555876 -0.1533105 2.030303 -3.637515 -0.1533105 2.030303 -0.4498482 0.23359 2.023094 -3.637515 0.23359 2.023094 -0.4498482 -0.173783 0.9316233 -2.440565 -0.173783 0.9316233 0.747102 0.2131175 0.9244139 -2.440565 0.2131175 0.9244139 0.747102 -2.051271 -0.2215324 -3.637515 -2.051271 -0.2215324 -0.4498482 -2.051271 0.1654353 -3.637515 -2.051271 0.1654353 -0.4498482 -0.9523999 -0.2215324 -2.440565 -0.9523999 -0.2215324 0.747102 -0.9523999 0.1654353 -2.440565 -0.9523999 0.1654353 0.747102 2.07387 0.1423153 -3.626658 2.066959 0.1449157 -0.4391403 2.05124 -0.2436677 -3.626392 2.044329 -0.2410672 -0.4388743 0.973708 0.207641 -2.432196 0.9667969 0.2102414 0.7553218 0.9510777 -0.1783419 -2.431931 0.9441666 -0.1757415 0.7555876 -0.001343667 1.006191 -3.398823 -0.001343667 1.006191 3.134896 0.5864416 0.815208 -3.398823 0.5864416 0.815208 3.134896 0.9497129 0.315208 -3.398823 0.9497129 0.315208 3.134896 0.9497128 -0.302826 -3.398823 0.9497128 -0.302826 3.134896 0.5864415 -0.8028261 -3.398823 0.5864415 -0.8028261 3.134896 -0.001343727 -0.993809 -3.398823 -0.001343727 -0.993809 3.134896 -0.589129 -0.8028259 -3.398823 -0.589129 -0.8028259 3.134896 -0.9524002 -0.3028261 -3.398823 -0.9524002 -0.3028261 3.134896 -0.9524002 0.3152081 -3.398823 -0.9524002 0.3152081 3.134896 -0.5891286 0.8152083 -3.398823 -0.5891286 0.8152083 3.134896</float_array>
          <technique_common>
            <accessor source="#Cone-mesh-positions-array" count="63" stride="3">
              <param name="X" type="float"/>
              <param name="Y" type="float"/>
              <param name="Z" type="float"/>
            </accessor>
          </technique_common>
        </source>
        <source id="Cone-mesh-normals">
          <float_array id="Cone-mesh-normals-array" count="243">0.2921583 0.8991702 0.3257862 0.7648799 0.5557178 0.3257862 0.9454435 0 0.3257862 0.7648798 -0.5557178 0.3257863 0.292158 -0.8991702 0.3257862 -0.2921583 -0.8991701 0.3257862 -0.7648798 -0.5557178 0.3257864 -0.9454435 0 0.3257863 -0.7648797 0.5557178 0.3257862 -0.2921582 0.8991702 0.3257863 0 0 -1 -0.07711684 -0.9970197 0.002212107 -0.9970217 0.07711833 6.87516e-4 0.07711654 0.9970196 -0.002212166 0.9970217 -0.07711827 -6.87506e-4 0.05621385 0.732798 -0.6781202 -0.0562132 -0.732798 0.6781203 0.0186302 0.9998265 0 0.9998264 -0.01863038 0 -0.0186305 -0.9998265 0 -0.9998264 0.01863038 0 -0.01372343 -0.7365151 -0.6762819 0.01372408 0.7365154 0.6762816 -1 0 0 0 1 0 1 0 0 0 -1 0 0.7366429 0 -0.676282 -0.736643 0 0.6762818 0.9982834 -0.0585277 0.002212226 -0.05852997 -0.9982854 6.87516e-4 -0.9982834 0.05852842 -0.002212166 0.05852997 0.9982854 -6.87516e-4 -0.7337184 0.04255092 -0.67812 0.7337182 -0.04255145 0.6781203 0.309017 0.9510565 0 0.809017 0.5877854 0 0.809017 -0.5877854 0 0.3090169 -0.9510567 0 -0.3090171 -0.9510565 0 -0.8090171 -0.5877852 0 0 0 1 -0.8090168 0.5877855 0 -0.3090168 0.9510567 0 -1.06193e-6 0 -1 1.06193e-6 0 -1 -1.06193e-6 0 -1 0 0 -1 -0.07711684 -0.9970197 0.002212285 -0.9970217 0.07711827 6.87512e-4 0.07711654 0.9970197 -0.002212166 0.9970217 -0.07711827 -6.87516e-4 0.05621361 0.7327981 -0.6781203 -0.05621308 -0.732798 0.6781203 0.9998264 -0.01863038 0 -0.0186305 -0.9998264 0 -0.9998264 0.01863038 0 -0.01372331 -0.7365153 -0.6762818 0.01372379 0.7365152 0.6762818 0.736643 0 -0.6762818 0.9982833 -0.05852919 0.002212166 -0.05852997 -0.9982854 6.87516e-4 -0.9982834 0.05852806 -0.002212166 0.05852997 0.9982854 -6.87516e-4 -0.7337183 0.04255157 -0.6781201 0.7337183 -0.0425508 0.6781202 0.8090171 0.5877853 0 1 -2.36171e-7 0 0.8090171 -0.5877852 0 0.3090169 -0.9510566 0 -0.3090171 -0.9510566 0 -0.8090171 -0.5877853 0 -4.05622e-7 0 1 2.30287e-7 0 1 1.06193e-6 0 1 -0.809017 0.5877854 0 -0.3090168 0.9510567 0 5.30967e-7 0 -1 5.30965e-7 0 -1 -1.06193e-6 0 -1 2.57922e-7 0 -1</float_array>
          <technique_common>
            <accessor source="#Cone-mesh-normals-array" count="81" stride="3">
              <param name="X" type="float"/>
              <param name="Y" type="float"/>
              <param name="Z" type="float"/>
            </accessor>
          </technique_common>
        </source>
        <vertices id="Cone-mesh-vertices">
          <input semantic="POSITION" source="#Cone-mesh-positions"/>
        </vertices>
        <triangles count="102">
          <input semantic="VERTEX" source="#Cone-mesh-vertices" offset="0"/>
          <input semantic="NORMAL" source="#Cone-mesh-normals" offset="1"/>
          <p>0 0 7 0 1 0 1 1 7 1 2 1 2 2 7 2 3 2 3 3 7 3 4 3 4 4 7 4 5 4 5 5 7 5 6 5 6 6 7 6 8 6 8 7 7 7 9 7 9 8 7 8 10 8 10 9 7 9 0 9 3 10 5 10 8 10 12 11 13 11 11 11 14 12 17 12 13 12 18 13 15 13 17 13 15 14 12 14 11 14 13 15 15 15 11 15 14 16 16 16 18 16 20 17 21 17 19 17 22 18 25 18 21 18 26 19 23 19 25 19 23 20 20 20 19 20 25 21 19 21 21 21 26 22 20 22 24 22 28 23 29 23 27 23 30 24 33 24 29 24 34 25 31 25 33 25 31 26 28 26 27 26 33 27 27 27 29 27 30 28 32 28 34 28 36 29 37 29 35 29 38 30 41 30 37 30 42 31 39 31 41 31 39 32 36 32 35 32 41 33 35 33 37 33 38 34 40 34 42 34 44 35 45 35 43 35 46 36 47 36 45 36 48 25 49 25 47 25 50 37 51 37 49 37 52 38 53 38 51 38 54 39 55 39 53 39 56 40 57 40 55 40 58 23 59 23 57 23 60 41 52 41 48 41 60 42 61 42 59 42 62 43 43 43 61 43 49 10 53 10 57 10 10 10 0 10 1 10 1 44 2 44 3 44 3 45 4 45 5 45 5 46 6 46 8 46 8 10 9 10 10 10 10 10 1 10 8 10 1 47 3 47 8 47 12 48 14 48 13 48 14 49 18 49 17 49 18 50 16 50 15 50 15 51 16 51 12 51 13 52 17 52 15 52 14 53 12 53 16 53 20 17 22 17 21 17 22 54 26 54 25 54 26 55 24 55 23 55 23 56 24 56 20 56 25 57 23 57 19 57 26 58 22 58 20 58 28 23 30 23 29 23 30 24 34 24 33 24 34 25 32 25 31 25 31 26 32 26 28 26 33 59 31 59 27 59 30 28 28 28 32 28 36 60 38 60 37 60 38 61 42 61 41 61 42 62 40 62 39 62 39 63 40 63 36 63 41 64 39 64 35 64 38 65 36 65 40 65 44 35 46 35 45 35 46 66 48 66 47 66 48 67 50 67 49 67 50 68 52 68 51 68 52 69 54 69 53 69 54 70 56 70 55 70 56 71 58 71 57 71 58 23 60 23 59 23 48 41 46 41 44 41 44 72 62 72 48 72 62 73 60 73 48 73 60 41 58 41 56 41 56 41 54 41 60 41 54 41 52 41 60 41 52 74 50 74 48 74 60 75 62 75 61 75 62 76 44 76 43 76 61 77 43 77 45 77 45 10 47 10 49 10 49 78 51 78 53 78 53 10 55 10 57 10 57 79 59 79 61 79 61 10 45 10 57 10 45 80 49 80 57 80</p>
        </triangles>
      </mesh>
    </geometry>
  </library_geometries>
  <library_controllers/>
  <library_visual_scenes>
    <visual_scene id="Scene" name="Scene">
      <node id="Camera" name="Camera" type="NODE">
        <matrix sid="transform">0.6859207 -0.3240135 0.6515582 7.481132 0.7276763 0.3054208 -0.6141704 -6.50764 0 0.8953956 0.4452714 5.343665 0 0 0 1</matrix>
        <instance_camera url="#Camera-camera"/>
      </node>
      <node id="Ship-col" name="Ship-col" type="NODE">
        <matrix sid="transform">1 0 0 0.001343696 0 1 0 -0.006191035 0 0 1 0.2043743 0 0 0 1</matrix>
        <instance_geometry url="#Cone-mesh" name="Ship-col"/>
      </node>
    </visual_scene>
  </library_visual_scenes>
  <scene>
    <instance_visual_scene url="#Scene"/>
  </scene>
</COLLADA>